^F:\SDA\PROJET\SPRINT_3\SPRINT_3\DEBUG\BLOCDATA.OBJ|F:\SDA\PROJET\SPRINT_3\SPRINT_3\DEBUG\CONTENEURTD.OBJ|F:\SDA\PROJET\SPRINT_3\SPRINT_3\DEBUG\CONTENEURTDE.OBJ|F:\SDA\PROJET\SPRINT_3\SPRINT_3\DEBUG\FILE.OBJ|F:\SDA\PROJET\SPRINT_3\SPRINT_3\DEBUG\IDENTIFICATEURMESSAGE.OBJ|F:\SDA\PROJET\SPRINT_3\SPRINT_3\DEBUG\LISTE.OBJ|F:\SDA\PROJET\SPRINT_3\SPRINT_3\DEBUG\MAIN.OBJ|F:\SDA\PROJET\SPRINT_3\SPRINT_3\DEBUG\MESSAGEENCOURS.OBJ|F:\SDA\PROJET\SPRINT_3\SPRINT_3\DEBUG\MESSAGERIE.OBJ|F:\SDA\PROJET\SPRINT_3\SPRINT_3\DEBUG\PAQUETRESEAU.OBJ
F:\SDA\PROJET\SPRINT_3\DEBUG\SPRINT_3.EXE
F:\SDA\PROJET\SPRINT_3\DEBUG\SPRINT_3.ILK
F:\SDA\PROJET\SPRINT_3\DEBUG\SPRINT_3.PDB
