^F:\SDA\PROJET\SPRINT_4\SPRINT_4\CONTENEURTD.CPP
/c /ZI /nologo /W3 /WX- /diagnostics:classic /sdl /Od /Oy- /D _MBCS /Gm /EHsc /RTC1 /MDd /GS /fp:precise /Zc:wchar_t /Zc:forScope /Zc:inline /Fo"DEBUG\\" /Fd"DEBUG\VC141.PDB" /Gd /TP /analyze- F:\SDA\PROJET\SPRINT_4\SPRINT_4\CONTENEURTD.CPP
^F:\SDA\PROJET\SPRINT_4\SPRINT_4\FILE.CPP
/c /ZI /nologo /W3 /WX- /diagnostics:classic /sdl /Od /Oy- /D _MBCS /Gm /EHsc /RTC1 /MDd /GS /fp:precise /Zc:wchar_t /Zc:forScope /Zc:inline /Fo"DEBUG\\" /Fd"DEBUG\VC141.PDB" /Gd /TP /analyze- F:\SDA\PROJET\SPRINT_4\SPRINT_4\FILE.CPP
^F:\SDA\PROJET\SPRINT_4\SPRINT_4\FILEAPRIORITE.CPP
/c /ZI /nologo /W3 /WX- /diagnostics:classic /sdl /Od /Oy- /D _MBCS /Gm /EHsc /RTC1 /MDd /GS /fp:precise /Zc:wchar_t /Zc:forScope /Zc:inline /Fo"DEBUG\\" /Fd"DEBUG\VC141.PDB" /Gd /TP /analyze- F:\SDA\PROJET\SPRINT_4\SPRINT_4\FILEAPRIORITE.CPP
^F:\SDA\PROJET\SPRINT_4\SPRINT_4\POSITION.CPP
/c /ZI /nologo /W3 /WX- /diagnostics:classic /sdl /Od /Oy- /D _MBCS /Gm /EHsc /RTC1 /MDd /GS /fp:precise /Zc:wchar_t /Zc:forScope /Zc:inline /Fo"DEBUG\\" /Fd"DEBUG\VC141.PDB" /Gd /TP /analyze- F:\SDA\PROJET\SPRINT_4\SPRINT_4\POSITION.CPP
^F:\SDA\PROJET\SPRINT_4\SPRINT_4\TESTFILECONTENEURTD_POSITIONS.CPP
/c /ZI /nologo /W3 /WX- /diagnostics:classic /sdl /Od /Oy- /D _MBCS /Gm /EHsc /RTC1 /MDd /GS /fp:precise /Zc:wchar_t /Zc:forScope /Zc:inline /Fo"DEBUG\\" /Fd"DEBUG\VC141.PDB" /Gd /TP /analyze- F:\SDA\PROJET\SPRINT_4\SPRINT_4\TESTFILECONTENEURTD_POSITIONS.CPP
