^C:\USERS\RENAR\DESKTOP\SPRINT_6\SPRINT_6\BLOCDATA.CPP
/c /ZI /nologo /W3 /WX- /diagnostics:classic /sdl /Od /Oy- /D _MBCS /Gm /EHsc /RTC1 /MDd /GS /fp:precise /Zc:wchar_t /Zc:forScope /Zc:inline /Fo"DEBUG\\" /Fd"DEBUG\VC141.PDB" /Gd /TP /analyze- C:\USERS\RENAR\DESKTOP\SPRINT_6\SPRINT_6\BLOCDATA.CPP
^C:\USERS\RENAR\DESKTOP\SPRINT_6\SPRINT_6\CONTENEURTD.CPP
/c /ZI /nologo /W3 /WX- /diagnostics:classic /sdl /Od /Oy- /D _MBCS /Gm /EHsc /RTC1 /MDd /GS /fp:precise /Zc:wchar_t /Zc:forScope /Zc:inline /Fo"DEBUG\\" /Fd"DEBUG\VC141.PDB" /Gd /TP /analyze- C:\USERS\RENAR\DESKTOP\SPRINT_6\SPRINT_6\CONTENEURTD.CPP
^C:\USERS\RENAR\DESKTOP\SPRINT_6\SPRINT_6\CONTENEURTDE.CPP
/c /ZI /nologo /W3 /WX- /diagnostics:classic /sdl /Od /Oy- /D _MBCS /Gm /EHsc /RTC1 /MDd /GS /fp:precise /Zc:wchar_t /Zc:forScope /Zc:inline /Fo"DEBUG\\" /Fd"DEBUG\VC141.PDB" /Gd /TP /analyze- C:\USERS\RENAR\DESKTOP\SPRINT_6\SPRINT_6\CONTENEURTDE.CPP
^C:\USERS\RENAR\DESKTOP\SPRINT_6\SPRINT_6\FILEAPRIORITE.CPP
/c /ZI /nologo /W3 /WX- /diagnostics:classic /sdl /Od /Oy- /D _MBCS /Gm /EHsc /RTC1 /MDd /GS /fp:precise /Zc:wchar_t /Zc:forScope /Zc:inline /Fo"DEBUG\\" /Fd"DEBUG\VC141.PDB" /Gd /TP /analyze- C:\USERS\RENAR\DESKTOP\SPRINT_6\SPRINT_6\FILEAPRIORITE.CPP
^C:\USERS\RENAR\DESKTOP\SPRINT_6\SPRINT_6\IDENTIFICATEURMESSAGE.CPP
/c /ZI /nologo /W3 /WX- /diagnostics:classic /sdl /Od /Oy- /D _MBCS /Gm /EHsc /RTC1 /MDd /GS /fp:precise /Zc:wchar_t /Zc:forScope /Zc:inline /Fo"DEBUG\\" /Fd"DEBUG\VC141.PDB" /Gd /TP /analyze- C:\USERS\RENAR\DESKTOP\SPRINT_6\SPRINT_6\IDENTIFICATEURMESSAGE.CPP
^C:\USERS\RENAR\DESKTOP\SPRINT_6\SPRINT_6\LISTE.CPP
/c /ZI /nologo /W3 /WX- /diagnostics:classic /sdl /Od /Oy- /D _MBCS /Gm /EHsc /RTC1 /MDd /GS /fp:precise /Zc:wchar_t /Zc:forScope /Zc:inline /Fo"DEBUG\\" /Fd"DEBUG\VC141.PDB" /Gd /TP /analyze- C:\USERS\RENAR\DESKTOP\SPRINT_6\SPRINT_6\LISTE.CPP
^C:\USERS\RENAR\DESKTOP\SPRINT_6\SPRINT_6\MAIN.CPP
/c /ZI /nologo /W3 /WX- /diagnostics:classic /sdl /Od /Oy- /D _MBCS /Gm /EHsc /RTC1 /MDd /GS /fp:precise /Zc:wchar_t /Zc:forScope /Zc:inline /Fo"DEBUG\\" /Fd"DEBUG\VC141.PDB" /Gd /TP /analyze- C:\USERS\RENAR\DESKTOP\SPRINT_6\SPRINT_6\MAIN.CPP
^C:\USERS\RENAR\DESKTOP\SPRINT_6\SPRINT_6\MESSAGEENCOURS.CPP
/c /ZI /nologo /W3 /WX- /diagnostics:classic /sdl /Od /Oy- /D _MBCS /Gm /EHsc /RTC1 /MDd /GS /fp:precise /Zc:wchar_t /Zc:forScope /Zc:inline /Fo"DEBUG\\" /Fd"DEBUG\VC141.PDB" /Gd /TP /analyze- C:\USERS\RENAR\DESKTOP\SPRINT_6\SPRINT_6\MESSAGEENCOURS.CPP
^C:\USERS\RENAR\DESKTOP\SPRINT_6\SPRINT_6\MESSAGERIE.CPP
/c /ZI /nologo /W3 /WX- /diagnostics:classic /sdl /Od /Oy- /D _MBCS /Gm /EHsc /RTC1 /MDd /GS /fp:precise /Zc:wchar_t /Zc:forScope /Zc:inline /Fo"DEBUG\\" /Fd"DEBUG\VC141.PDB" /Gd /TP /analyze- C:\USERS\RENAR\DESKTOP\SPRINT_6\SPRINT_6\MESSAGERIE.CPP
^C:\USERS\RENAR\DESKTOP\SPRINT_6\SPRINT_6\PAQUETRESEAU.CPP
/c /ZI /nologo /W3 /WX- /diagnostics:classic /sdl /Od /Oy- /D _MBCS /Gm /EHsc /RTC1 /MDd /GS /fp:precise /Zc:wchar_t /Zc:forScope /Zc:inline /Fo"DEBUG\\" /Fd"DEBUG\VC141.PDB" /Gd /TP /analyze- C:\USERS\RENAR\DESKTOP\SPRINT_6\SPRINT_6\PAQUETRESEAU.CPP
