^F:\SDA\PROJET\SPRINT_5\SPRINT_5\DEBUG\BLOCDATA.OBJ|F:\SDA\PROJET\SPRINT_5\SPRINT_5\DEBUG\CONTENEURTD.OBJ|F:\SDA\PROJET\SPRINT_5\SPRINT_5\DEBUG\CONTENEURTDE.OBJ|F:\SDA\PROJET\SPRINT_5\SPRINT_5\DEBUG\FILEAPRIORITE.OBJ|F:\SDA\PROJET\SPRINT_5\SPRINT_5\DEBUG\IDENTIFICATEURMESSAGE.OBJ|F:\SDA\PROJET\SPRINT_5\SPRINT_5\DEBUG\LISTE.OBJ|F:\SDA\PROJET\SPRINT_5\SPRINT_5\DEBUG\MAIN.OBJ|F:\SDA\PROJET\SPRINT_5\SPRINT_5\DEBUG\MESSAGEENCOURS.OBJ|F:\SDA\PROJET\SPRINT_5\SPRINT_5\DEBUG\MESSAGERIE.OBJ|F:\SDA\PROJET\SPRINT_5\SPRINT_5\DEBUG\PAQUETRESEAU.OBJ
F:\SDA\PROJET\SPRINT_5\DEBUG\SPRINT_5.EXE
F:\SDA\PROJET\SPRINT_5\DEBUG\SPRINT_5.ILK
F:\SDA\PROJET\SPRINT_5\DEBUG\SPRINT_5.PDB
