^E:\SDA\TP\TP4\SPRINT1\SPRINT1\BLOCDATA.CPP
/c /ZI /nologo /W3 /WX- /diagnostics:classic /sdl /Od /Oy- /D _MBCS /Gm /EHsc /RTC1 /MDd /GS /fp:precise /Zc:wchar_t /Zc:forScope /Zc:inline /Fo"DEBUG\\" /Fd"DEBUG\VC141.PDB" /Gd /TP /analyze- E:\SDA\TP\TP4\SPRINT1\SPRINT1\BLOCDATA.CPP
^E:\SDA\TP\TP4\SPRINT1\SPRINT1\IDENTIFICATEURMESSAGE.CPP
/c /ZI /nologo /W3 /WX- /diagnostics:classic /sdl /Od /Oy- /D _MBCS /Gm /EHsc /RTC1 /MDd /GS /fp:precise /Zc:wchar_t /Zc:forScope /Zc:inline /Fo"DEBUG\\" /Fd"DEBUG\VC141.PDB" /Gd /TP /analyze- E:\SDA\TP\TP4\SPRINT1\SPRINT1\IDENTIFICATEURMESSAGE.CPP
^E:\SDA\TP\TP4\SPRINT1\SPRINT1\MAIN.CPP
/c /ZI /nologo /W3 /WX- /diagnostics:classic /sdl /Od /Oy- /D _MBCS /Gm /EHsc /RTC1 /MDd /GS /fp:precise /Zc:wchar_t /Zc:forScope /Zc:inline /Fo"DEBUG\\" /Fd"DEBUG\VC141.PDB" /Gd /TP /analyze- E:\SDA\TP\TP4\SPRINT1\SPRINT1\MAIN.CPP
^E:\SDA\TP\TP4\SPRINT1\SPRINT1\PAQUETRESEAU.CPP
/c /ZI /nologo /W3 /WX- /diagnostics:classic /sdl /Od /Oy- /D _MBCS /Gm /EHsc /RTC1 /MDd /GS /fp:precise /Zc:wchar_t /Zc:forScope /Zc:inline /Fo"DEBUG\\" /Fd"DEBUG\VC141.PDB" /Gd /TP /analyze- E:\SDA\TP\TP4\SPRINT1\SPRINT1\PAQUETRESEAU.CPP
^F:\SDA\PROJET\SPRINT1\SPRINT1\BLOCDATA.CPP
/c /ZI /nologo /W3 /WX- /diagnostics:classic /sdl /Od /Oy- /D _MBCS /Gm /EHsc /RTC1 /MDd /GS /fp:precise /Zc:wchar_t /Zc:forScope /Zc:inline /Fo"DEBUG\\" /Fd"DEBUG\VC141.PDB" /Gd /TP /analyze- F:\SDA\PROJET\SPRINT1\SPRINT1\BLOCDATA.CPP
^F:\SDA\PROJET\SPRINT1\SPRINT1\IDENTIFICATEURMESSAGE.CPP
/c /ZI /nologo /W3 /WX- /diagnostics:classic /sdl /Od /Oy- /D _MBCS /Gm /EHsc /RTC1 /MDd /GS /fp:precise /Zc:wchar_t /Zc:forScope /Zc:inline /Fo"DEBUG\\" /Fd"DEBUG\VC141.PDB" /Gd /TP /analyze- F:\SDA\PROJET\SPRINT1\SPRINT1\IDENTIFICATEURMESSAGE.CPP
^F:\SDA\PROJET\SPRINT1\SPRINT1\MAIN.CPP
/c /ZI /nologo /W3 /WX- /diagnostics:classic /sdl /Od /Oy- /D _MBCS /Gm /EHsc /RTC1 /MDd /GS /fp:precise /Zc:wchar_t /Zc:forScope /Zc:inline /Fo"DEBUG\\" /Fd"DEBUG\VC141.PDB" /Gd /TP /analyze- F:\SDA\PROJET\SPRINT1\SPRINT1\MAIN.CPP
^F:\SDA\PROJET\SPRINT1\SPRINT1\PAQUETRESEAU.CPP
/c /ZI /nologo /W3 /WX- /diagnostics:classic /sdl /Od /Oy- /D _MBCS /Gm /EHsc /RTC1 /MDd /GS /fp:precise /Zc:wchar_t /Zc:forScope /Zc:inline /Fo"DEBUG\\" /Fd"DEBUG\VC141.PDB" /Gd /TP /analyze- F:\SDA\PROJET\SPRINT1\SPRINT1\PAQUETRESEAU.CPP
^F:\SDA\PROJET\SPRINT1\SPRINT1\DATE.CPP
/c /ZI /nologo /W3 /WX- /diagnostics:classic /sdl /Od /Oy- /D _MBCS /Gm /EHsc /RTC1 /MDd /GS /fp:precise /Zc:wchar_t /Zc:forScope /Zc:inline /Fo"DEBUG\\" /Fd"DEBUG\VC141.PDB" /Gd /TP /analyze- F:\SDA\PROJET\SPRINT1\SPRINT1\DATE.CPP
^F:\SDA\PROJET\SPRINT1\SPRINT1\HEURE.CPP
/c /ZI /nologo /W3 /WX- /diagnostics:classic /sdl /Od /Oy- /D _MBCS /Gm /EHsc /RTC1 /MDd /GS /fp:precise /Zc:wchar_t /Zc:forScope /Zc:inline /Fo"DEBUG\\" /Fd"DEBUG\VC141.PDB" /Gd /TP /analyze- F:\SDA\PROJET\SPRINT1\SPRINT1\HEURE.CPP
^E:\SDA\PROJET\SPRINT1\SPRINT1\BLOCDATA.CPP
/c /ZI /nologo /W3 /WX- /diagnostics:classic /sdl /Od /Oy- /D _MBCS /Gm /EHsc /RTC1 /MDd /GS /fp:precise /Zc:wchar_t /Zc:forScope /Zc:inline /Fo"DEBUG\\" /Fd"DEBUG\VC141.PDB" /Gd /TP /analyze- E:\SDA\PROJET\SPRINT1\SPRINT1\BLOCDATA.CPP
^E:\SDA\PROJET\SPRINT1\SPRINT1\IDENTIFICATEURMESSAGE.CPP
/c /ZI /nologo /W3 /WX- /diagnostics:classic /sdl /Od /Oy- /D _MBCS /Gm /EHsc /RTC1 /MDd /GS /fp:precise /Zc:wchar_t /Zc:forScope /Zc:inline /Fo"DEBUG\\" /Fd"DEBUG\VC141.PDB" /Gd /TP /analyze- E:\SDA\PROJET\SPRINT1\SPRINT1\IDENTIFICATEURMESSAGE.CPP
^E:\SDA\PROJET\SPRINT1\SPRINT1\MAIN.CPP
/c /ZI /nologo /W3 /WX- /diagnostics:classic /sdl /Od /Oy- /D _MBCS /Gm /EHsc /RTC1 /MDd /GS /fp:precise /Zc:wchar_t /Zc:forScope /Zc:inline /Fo"DEBUG\\" /Fd"DEBUG\VC141.PDB" /Gd /TP /analyze- E:\SDA\PROJET\SPRINT1\SPRINT1\MAIN.CPP
^E:\SDA\PROJET\SPRINT1\SPRINT1\PAQUETRESEAU.CPP
/c /ZI /nologo /W3 /WX- /diagnostics:classic /sdl /Od /Oy- /D _MBCS /Gm /EHsc /RTC1 /MDd /GS /fp:precise /Zc:wchar_t /Zc:forScope /Zc:inline /Fo"DEBUG\\" /Fd"DEBUG\VC141.PDB" /Gd /TP /analyze- E:\SDA\PROJET\SPRINT1\SPRINT1\PAQUETRESEAU.CPP
